{
  "name": "zk-icons",
  "css_prefix_text": "icon-",
  "css_use_suffix": false,
  "hinting": true,
  "units_per_em": 1000,
  "ascent": 850,
  "glyphs": [
    {
      "uid": "17bc9dc0c46ef70b025000be6c1cf5cf",
      "css": "print",
      "code": 59392,
      "src": "custom_icons",
      "selected": true,
      "svg": {
        "path": "M301.9 51C291.7 52.8 282.1 60.2 277.6 69.9L275.5 74.5 275.2 238.7 275 403 174.7 403.2 74.5 403.5 69.4 405.8C63 408.7 55.8 416 52.8 422.5 49.3 430.1 49.6 441.5 53.3 449.2 56.7 456.2 63.4 462.2 70.6 465 76 467 78 467 175.5 467L274.9 467 275.2 503.2C275.5 538 275.6 539.7 277.7 544.2 282.2 554.1 291.2 561 302.2 563 305.7 563.7 375.8 563.9 503.6 563.8 691.7 563.5 699.7 563.4 704.3 561.6 710.9 559.1 719.2 551.2 722.1 544.8 724.5 539.6 724.5 539 724.8 503.2L725.1 467 805.3 467.2 885.5 467.5 885.8 627.7 886 788 805.6 788 725.1 788 724.8 767.7C724.5 747.9 724.4 747.4 721.7 741.8 718.3 734.8 711.6 728.7 704.4 726 699 724 697.6 724 500 724 301.1 724 301.1 724 295.5 726.1 288.8 728.6 281.4 735.5 278 742.5 275.7 747.2 275.5 748.7 275.2 767.7L274.8 788 194.4 788 114 788 114 672.6C114 546.3 114.3 553.7 108.1 544.6 106.4 542.2 102.9 538.8 100.3 537.1 83.7 526.1 61.1 532.6 52.7 550.8L50.5 555.5 50.5 692 50.5 828.5 54.1 835C58.3 842.6 65 848.3 72.4 850.5 76.6 851.8 91.7 852 176.1 852L274.9 852 275.2 888.3 275.5 924.5 278.3 930.2C281.8 937.2 288.4 943.3 295.7 946 301.1 948 301.8 948 501.8 947.8L702.5 947.5 706.8 945.2C713.4 941.7 718.7 936.4 721.7 930.2L724.5 924.5 724.8 888.3 725.1 852 825.8 851.8 926.5 851.5 931.5 849.1C937.8 845.9 943.9 839.8 947.1 833.5L949.5 828.5 949.5 627.5 949.5 426.5 946.8 421.3C943.1 414.3 937.9 409.3 931.1 406.1L925.5 403.5 825.3 403.2 725 403 724.8 238.7 724.5 74.5 722.1 69.2C719.2 62.8 710.9 54.9 704.3 52.4 699.7 50.6 691.9 50.5 503 50.4 394.9 50.3 304.4 50.6 301.9 51ZM661 307L661 499 500 499 339 499 339 307 339 115 500 115 661 115 661 307ZM661 836L661 884 500 884 339 884 339 836 339 788 500 788 661 788 661 836Z",
        "width": 1000
      },
      "search": [
        "print"
      ]
    },
    {
      "uid": "754dbea720bf7171ba15938a428d112a",
      "css": "pencil",
      "code": 59393,
      "src": "custom_icons",
      "selected": true,
      "svg": {
        "path": "M727 52.1C684.6 57 643.9 75.8 612.7 105 602.7 114.4 598.9 121.6 598.9 131.6 598.9 138.5 600.6 145.1 603.5 149.3 604.3 150.5 627.4 173.9 654.8 201.2L704.5 251 663 292.3C640.2 315 532.5 422.5 423.7 531L225.9 728.4 189.2 691.7 152.5 654.9 357.3 450.4C479 328.8 562.8 244.4 563.9 242.2 571.1 228 566.6 210 553.6 201.1 543.8 194.4 531 193.5 520.9 198.8 513.5 202.8 58.1 657.1 54.2 664.4L51.5 669.5 51.5 797.5 51.5 925.5 54.4 930.8C57.8 936.8 62.9 941.9 69.2 945.2L73.5 947.5 202 947.5 330.5 947.5 335.8 944.6C339.7 942.4 408.7 874.2 617.3 666.1 769.2 514.5 896.6 387 900.5 382.7 924.5 355.9 940.7 321.8 947.5 283.5 950.1 269.1 950.6 242.9 948.6 227.3 942.8 182.1 925 144.6 894 112.6 876.2 94.2 859 81.7 836.9 71 803.5 54.9 763.1 48 727 52.1ZM777 118C825.9 128 866 164.5 879.9 211.7 887.2 236.5 887.2 264.5 879.9 289.3 877.4 297.7 872.1 310.5 868.5 316.6L865.9 321.1 773.1 228.8C722 178 680.2 136 680 135.5 679.6 134.2 691.2 127.9 701 124.2 709.9 120.7 722.8 117.4 732.5 116.1 743.2 114.6 765 115.5 777 118ZM786.9 333.4L823.2 369.7 600.8 591.6C478.5 713.6 370.8 821 361.5 830.2L344.5 847 308 810.4 271.5 773.9 510.2 535.5C641.4 404.3 749.2 297 749.7 297 750.1 297 766.9 313.4 786.9 333.4ZM203 796.5L290.5 884 202.7 884 115 884 115 796.5C115 748.4 115.1 709 115.3 709 115.4 709 154.9 748.4 203 796.5Z",
        "width": 1000
      },
      "search": [
        "pencil"
      ]
    },
    {
      "uid": "f3abbd9fd7331e2de80d5a2177e76580",
      "css": "home",
      "code": 59394,
      "src": "custom_icons",
      "selected": true,
      "svg": {
        "path": "M491.5 61.3C489.3 62.1 485.9 63.5 484 64.5 482.1 65.5 385.2 161.3 268.7 277.4 88.1 457.3 56.5 489.3 54.2 494 51.9 498.8 51.5 500.7 51.5 508.5 51.5 515.9 51.9 518.3 53.8 521.8 57.3 528.4 62.6 533.7 68.8 536.7 73.7 539.1 75.7 539.5 83 539.5 89.8 539.5 92.5 539 96.5 537.1 100.6 535.2 127.8 508.5 240 396.6 316.2 320.7 405.8 231.3 439.2 198.1L499.8 137.7 628.4 265.5 757 393.4 757 634.7 757 876 500 876 243 876 243 713C243 551.6 243 550 241 544.6 238.3 537.4 232.2 530.7 225.2 527.3 220.3 524.9 218.3 524.5 211 524.5 203.3 524.6 201.9 524.9 196.2 527.9 189.6 531.5 185.9 535.4 181.9 543L179.5 547.5 179.5 731.5 179.5 915.5 182.1 921.1C185.4 928.2 190.8 933.6 197.9 936.9L203.5 939.5 500 939.5 796.5 939.5 802.1 936.9C809.2 933.6 814.6 928.2 817.9 921.1L820.5 915.5 820.8 686.5 821 457.6 859.8 496.1C903.9 540 903.2 539.5 917 539.5 924.3 539.5 926.3 539.1 931.2 536.7 946.9 529 953.5 509.6 945.8 494 943.5 489.3 911 456.6 731.1 277.2 543 89.8 518.4 65.6 513.4 63.3 506.7 60.3 497.3 59.4 491.5 61.3Z",
        "width": 1000
      },
      "search": [
        "home"
      ]
    },
    {
      "uid": "1e03e77d74a49b27f627a32cdcd88e65",
      "css": "cow-full",
      "code": 59395,
      "src": "custom_icons",
      "selected": true,
      "svg": {
        "path": "M182 98.4C168.4 101.3 161.1 110.5 161 124.5 161 133.4 166.3 180.8 169.5 200.7 175.2 236 179.7 251.7 190 272.5 206.2 305.2 229.9 328.6 269.8 351 284.6 359.4 288 362.6 288 368.6 288 371.2 286.7 376.4 284.9 381.1 282.1 388.3 281.6 389 279.7 388.4 278.5 388.1 269.4 384.5 259.5 380.5 218.6 363.9 205.3 360.5 181 360.6 167.9 360.6 162.2 361 153.1 362.8 132.7 366.9 110.7 375 85.6 387.8 69.3 396 60.8 403.6 55.3 414.7 48.4 428.6 49.8 444.7 59.1 459 64.1 466.7 81.3 486.2 93.6 498 135.2 537.8 166.1 556.1 204.5 563.7 210.9 564.9 218.4 565.4 230.5 565.4 250 565.4 262.9 563.4 280.8 557.4 286.5 555.5 292.4 554 293.8 554.2 296.3 554.5 297.8 557.9 319.5 612 332.2 643.6 346.7 680.5 351.7 694L360.9 718.5 369.9 764C374.8 789 380.1 816 381.5 823.9 388 860.1 397.7 875.5 421.2 887 441.5 896.8 467 901.5 500.5 901.4 533.8 901.4 558.6 896.8 578.9 886.9 587.7 882.6 590.8 880.5 597.1 874.1 609.5 861.7 613.7 851.2 619.9 817 621.5 807.9 626.5 782.1 631 759.6L639.2 718.6 647.6 696C652.3 683.6 666.8 646.6 679.8 613.9 702.2 557.8 703.7 554.5 706.2 554.2 707.6 554 713.5 555.5 719.2 557.4 736.8 563.3 750.1 565.4 769 565.5 794.5 565.5 814.2 560.9 837.7 549.5 864.4 536.4 898.5 508.6 926.6 476.9 944.8 456.4 949.6 446.3 948.8 430.2 947.9 411.9 937.7 399.6 913.3 387.2 875.8 368.2 848.4 360.5 818.5 360.5 794.5 360.6 783.9 363.3 742.7 379.7 729.6 384.9 718.7 389 718.5 388.8 717.1 387.3 712.8 374.5 712.3 370.4 711.8 365.4 711.9 365 715.6 361.1 717.8 358.8 725.9 353.4 734.3 348.6 753.5 337.6 762.9 330.8 775.8 318.5 787.6 307.3 797.7 294.7 805.2 282.1 821.7 254.2 828.6 226 836.5 155 840.3 120.4 839.7 113.6 832.2 105.7 824 97 807 95 798.4 101.5 792.5 106 790.3 111.3 786 131.3 783.8 141.5 780.4 154.7 778.4 160.7 773.7 175.3 763.5 195.7 756 206 740 227.8 717 244.4 690.6 253.4 681.7 256.5 666.9 259.9 662.6 260 660.8 260 654.3 257 645.6 252.1 602.3 227.9 535.3 212.3 486.8 215.2 442.9 217.7 389 232.8 354.2 252.3 337.8 261.4 338.7 261.3 319.5 256.3 278.8 245.7 248.3 220.4 230.5 182.7 222.9 166.4 218.8 153.3 213.5 128 210.5 113.6 208.2 107.8 203.8 103.3 198.9 98.2 190.9 96.4 182 98.4Z",
        "width": 1000
      },
      "search": [
        "cow-full"
      ]
    },
    {
      "uid": "b8b177563e45cbfc95b4fa738e0038ff",
      "css": "cow",
      "code": 59396,
      "src": "custom_icons",
      "selected": true,
      "svg": {
        "path": "M192.2 96.5C178.7 100.3 165.2 110.7 159.7 121.5 152.8 135.2 152.3 144.3 156.4 180.5 165.5 260.2 175.2 292 201.1 326.5 204.8 331.4 209 336.6 210.4 337.9 211.8 339.3 213 340.6 213 340.9 213 341.2 206.8 341.6 199.3 341.7 168.9 342 141.7 349.3 104.3 367.1 75.1 380.9 60.9 394.7 53.4 416.5 51 423.5 50.6 426.1 50.6 436.5 50.5 450.4 52.5 458.5 59.1 470.8 64.1 480.3 69 486.5 83.7 502.5 122.4 544.5 160.2 570.7 199.5 582.6 225.1 590.4 261.6 591.3 286.7 584.6L291.8 583.2 310.8 630.9C342.8 711 341.6 707.5 350.4 751.5 354.5 772.4 359.3 796.9 360.9 806 364.6 826.3 367.9 838.1 373 848.5 387.5 878.6 414.9 895.1 463.2 902.7 479.2 905.2 520.8 905.2 536.8 902.7 585.1 895.1 612.5 878.6 627 848.5 631.9 838.4 635.3 826.6 638.5 808.6 640 800.9 644.7 776.3 649.1 754 657.9 709.7 657.3 712 675.6 664.8 683.7 644 686 637 686 633.2 686 622.5 680.1 613.2 670.5 608.5 665.7 606.1 664.1 605.8 657.8 606.2 649.2 606.7 644.7 608.6 639.1 614.3 634.7 618.7 631.2 626.8 612.8 675.5 604.9 696.4 604.8 696.8 596.5 738.2 591.9 761.2 587.1 785.5 586 792.2 580.5 823.9 576.4 832.3 563.1 838.9 536.3 852.5 481.2 854.4 446.7 842.9 426.5 836.2 421 828.9 415.9 801.8 414.7 795.6 409.6 769.3 404.4 743.5L395.1 696.5 387 675C382.6 663.2 367.1 624.1 352.7 588.1L326.6 522.8 312 523.3C298.7 523.7 296.7 524.1 287.2 527.3 270.9 533 262.5 534.4 246 534.4 236.4 534.3 229 533.7 224.3 532.7 192.5 525.5 165 507.5 128.5 469.9 110.5 451.4 105.9 445 105.3 438.3 104.8 432.1 107.1 428.3 114.2 423.6 121.6 418.6 143.9 408.6 157.8 404 176.7 397.7 182.6 396.7 200 396.7 219.2 396.7 225.6 398.2 256.9 410.6 283.8 421.3 307 430 308.5 430 309.8 430 323.8 397.9 326.4 389.1 327.3 386.1 328 380.7 328 377 328 359.2 320.2 349.3 294.6 335 279.2 326.3 269.3 319.2 258.6 309 238.8 290 227.1 268.3 220.5 238.4 218 226.8 212.9 195.8 213.4 195.2 213.6 195.1 214.5 197.1 215.5 199.7 229.6 237.2 256.7 268.3 290.2 285.1 307.4 293.7 326.5 299.6 345.1 302.1L354.7 303.3 371.6 293.8C403.9 275.6 444.6 263.5 485.5 259.9 527.2 256.3 586.5 270.3 628.2 293.7L645.3 303.3 654.7 302.1C713.8 294.3 762.3 257.2 782.7 204.1 786.5 193.9 786.7 197.3 783.5 216.7 776.1 260.9 767.2 281.8 746.3 304 734.5 316.5 723.9 324.5 703 336.3 679.7 349.5 672 359.7 672 377 672 380.7 672.7 386.1 673.6 389.1 676 397.3 690.1 430 691.2 430 692.9 430 714.9 421.8 740.9 411.5 774.6 398.1 780.4 396.7 800 396.6 817.1 396.6 825.3 398.1 844.1 404.6 856.5 408.9 878 418.7 885.2 423.2 896.1 430.2 897.7 438.1 890.4 448.7 885.2 456.3 859 483.2 845.5 494.8 826.7 511 806.7 523.1 789.2 528.9 776.9 533.1 769 534.3 754 534.4 737.5 534.4 729.1 533 712.8 527.3 704.3 524.4 701 523.7 693.9 523.7 686.5 523.6 684.6 523.9 679.7 526.3 662.1 535 659.2 558.6 674.2 571.4 678 574.7 685.9 578 690 578 690.9 578 694.3 578.9 697.6 580 715.4 586.2 733.2 589 754 589.1 797.4 589.1 836.8 573.3 877.6 539.3 900.9 519.9 930.3 488.8 938.9 474.6 950.1 456 952.8 435.2 946.5 416.5 939.3 394.9 924.6 380.7 894.9 366.6 857.9 349.1 830.6 341.9 800.3 341.7L786.1 341.6 790.4 337C799.6 327.2 809.5 312.4 816.9 297.4 829.8 271.4 836.8 240.5 843.6 180 846.8 151 846.9 139.9 844.1 130.9 839.9 117.6 830.3 106.5 817.8 100.5 808.3 95.9 801.6 94.7 789.4 95.2 780.8 95.6 778.4 96.1 772.6 98.8 763.9 102.9 755.2 111.2 750.7 119.8 747.2 126.3 745.4 132.5 740.9 153.5 731.6 196.7 712.3 223.9 680.7 238.5 673.4 241.9 660.2 246 656.7 246 655.6 246 650.5 243.5 645.2 240.5 625.4 229.4 583.7 215.6 552.7 210 500.7 200.6 454.9 204.3 398.7 222.6 378.6 229.2 366 234.3 354.7 240.6 349.4 243.6 343.9 246 342.6 246 341.3 246 336 244.6 331 243 304.9 234.5 285.3 217.9 273.1 194 265.4 179 262 168.5 256.5 142 251.7 119.2 243.4 106.8 228.2 99.3 221.1 95.8 220.3 95.6 209.2 95.3 201.1 95.1 195.9 95.5 192.2 96.5Z",
        "width": 1000
      },
      "search": [
        "cow"
      ]
    },
    {
      "uid": "f106092fbf8f5e1ec57659954f27a14e",
      "css": "user",
      "code": 59397,
      "src": "custom_icons",
      "selected": true,
      "svg": {
        "path": "M475 68C454.4 70.2 429.7 75.8 411.5 82.4 398.6 87.2 374 99.3 362.6 106.5 340.6 120.4 315.9 142.4 299.7 162.5 269.2 200.3 250.4 244.5 244.5 292 242.8 306.2 242.5 336.9 244 350.5 250.5 409.4 275.9 462 317.9 504.1 347.6 533.7 380.7 554.1 419.8 567 462.7 581 511.4 583.4 555.5 573.4 578.4 568.3 606.9 557 629.2 544.3L635.8 540.6 645.7 544.5C708.8 570 767.7 615.5 808.8 670.8 849.6 725.6 876.1 793.5 882.8 859.7L883.6 868 499.7 868 115.7 868 116.4 859.9C117.4 847.2 121.8 823 126.2 805.6 139.7 751.5 165 701.6 201.8 656 206.5 650.2 219.7 636.2 231.1 624.9 255.1 601.1 257 598.4 257 586.4 257 576.3 254.8 570.7 248.1 563.9 236.1 551.8 219.3 550.6 205.4 561 197.2 567.2 173.3 590.8 161 605 95.8 680 58.2 770.5 50.9 869.6 50.3 878.5 49.9 890.8 50.1 897.1 50.5 907.1 50.8 909.2 53.3 914.2 56.7 921.2 63.4 927.2 70.6 930 76.1 932 76.2 932 499.5 932L922.9 932 928.7 929.8C936.5 926.9 943.9 919.5 947 911.5 949.1 905.8 949.2 904.6 948.7 885 946.1 794.3 915 705.6 859.6 631.5 825.1 585.3 779.1 544.1 729.1 514.6 718.8 508.5 695 495.8 692 494.8 691.2 494.6 694.1 490.3 699.2 483.9 730.1 445.5 749.7 398.8 754.9 350.8 756.5 336.6 756.2 306.5 754.5 292 747.5 235.5 722.5 184.4 681.7 143.2 641.9 103 593.1 78.3 536 69.5 523.6 67.6 487.5 66.7 475 68ZM518.1 132C616.8 142 692.1 224.6 692 322.8 692 373.6 673.2 420.1 638.1 456.3 607.7 487.7 570.4 506.9 527.2 513.6 514.1 515.6 485.5 515.6 472 513.5 401.1 503 341.7 454.3 318 387.4 291.7 313 313.5 230.2 372.9 178.8 413.5 143.6 465.9 126.8 518.1 132Z",
        "width": 1000
      },
      "search": [
        "user"
      ]
    },
    {
      "uid": "05f381084778c0502a72e430d2014a33",
      "css": "logo",
      "code": 59398,
      "src": "custom_icons",
      "selected": true,
      "svg": {
        "path": "M185.4 346.2C183.7 348 181.6 351.6 180.6 354.2 179.1 358.2 178.3 359 174.6 360.3L170.4 361.7 169.1 358.8C167.5 355.2 162.6 352 158.5 352 156.9 352 153.3 351.3 150.6 350.5 139.7 347.2 130.8 349 124 356 119.6 360.5 119 360.8 115.9 360 110.2 358.7 109.1 357.9 108 354.4 106.7 350.5 102.3 347.7 98.2 348.2 94.7 348.6 91 354.1 91 358.9L91 362.6 82.3 363.9C77.4 364.6 69.2 365.4 64 365.6 52.8 366.2 50 366.7 50 368.1 50 370.2 57.3 380.1 63.1 385.8 71.6 394.2 78.5 397.5 88 397.5 92.1 397.5 96.6 397.1 97.9 396.6 100.1 395.8 100.2 396 99.5 398.1 98.2 402.3 97.7 426.2 98.9 432.4L100 438.3 96.5 442.1C90.9 448.4 89.8 451.4 90.2 459.4 90.4 465 91.2 468 93.8 473.3 99 483.7 104.1 486.6 118.9 487.6 133.6 488.5 140.2 489.9 143.5 493 155.4 503.7 164 504.4 172.6 495.6 176.5 491.4 179.9 483.3 178.6 481.2 178.3 480.7 178.7 479.7 179.5 479 181.5 477.3 185 465.7 185 460.6 185 458.4 184.6 455.1 184.1 453.3 183.4 451 183.7 448.1 185.1 442.8 187.6 433 189.2 418 188.8 408.8L188.5 401.3 192.5 403.1C198.7 405.9 208.1 407 215 405.9 226.8 404 238.2 397.2 241.8 389.9 243.8 385.8 243.9 385.5 242.2 384.8 241.3 384.4 238.6 384.4 236.3 384.7 230 385.5 227.7 384.6 220 377.9 211.6 370.7 207.9 369 200.5 369 194.6 369 194.3 368.8 196.5 365 198.2 362 198.4 352.5 196.9 348.1 194.8 342.2 189.9 341.4 185.4 346.2ZM191.9 349.9C196.3 354.3 195.4 365 190.3 368.9 186.8 371.7 181 373.2 174.7 372.8 169.7 372.5 169.5 372.4 169.2 369.3 168.9 366.3 169.2 366 173 364.9 178.1 363.3 182.7 359.3 183.6 355.4 184.5 351.4 186.8 348 188.5 348 189.3 348 190.9 348.9 191.9 349.9ZM103 356.4C103.8 359 105 360.2 108.1 361.4 110.3 362.3 113.1 363 114.5 363 117.7 363 118 363.7 116.7 369.7 115.4 376.1 114.6 376.2 105.9 371.7 98.3 367.7 95.6 363.7 96.4 357.2 96.7 354.8 97.2 352.4 97.6 351.9 98.6 350.2 101.8 352.9 103 356.4ZM147.8 359.2C149.7 359.7 153.1 359.9 155.4 359.6 160.2 358.9 164.7 360.2 165.6 362.5 167.1 366.4 164.8 371.5 159 377.2 152.5 383.6 150.5 384.5 152 380.4 152.6 379 153 376.2 153 374.2L153 370.6 149.3 374.1C146 377.3 129.3 387 127.3 387 126.8 387 126.6 384.9 126.9 382.4 127.2 378.5 126.7 377.1 124.1 373.5 119.7 367.3 120 364.4 125.5 361 131.6 357.2 139.4 356.6 147.8 359.2ZM96 370.3C97.9 372 101.8 374.4 104.6 375.7L109.9 378.1 105.9 383.7C102.8 388.2 100.8 389.9 96.7 391.7 93.9 392.9 90.4 393.9 89 394 84.7 394 76.7 389.4 71.4 383.9 66.1 378.3 61.5 372.2 62.1 371.5 63 370.7 84.8 367.2 88.5 367.3 91.4 367.3 93.5 368.2 96 370.3ZM203.2 372.9C204.5 373.4 207.7 375.9 210.3 378.5 215.6 383.7 221.6 386.7 228.4 387.6 230.9 388 233 388.6 233 389 233 390.2 223.5 398.7 219.9 400.6 217.5 401.9 214.3 402.5 209 402.5 202.3 402.5 200.7 402.1 194.1 398.7 188.3 395.7 186 395.1 183.6 395.6L180.6 396.2 182.8 398C184.7 399.6 184.8 400 183.5 401 182.4 401.9 182 404.6 182 411.9 182 420.4 181.1 428.8 179.4 437.3L178.8 440.2 176.7 438.2C170.9 433 165.1 432.7 152.5 437 147.6 438.6 142.3 440 140.7 440 139 440 133.8 438.3 129.1 436.2 122.2 433.2 119.3 432.5 114.3 432.5 106.8 432.5 107 433.1 107 416 107.1 397 109.9 384.1 115.2 379.4 117.1 377.6 117.2 377.6 120.1 381 122.8 384.2 123 385 122.5 389.8 122.1 393.9 122.3 395.2 123.4 395.6 125.2 396.3 137.1 390 144.2 384.7 147.6 382.1 149 381.4 148.5 382.7 146.4 387.6 145 392.4 145.2 393.2 145.7 394.7 157.6 384.9 161.7 379.6 165.1 375.2 165.3 375.1 167.6 376.7 170.7 378.7 179.9 378.1 185.5 375.5 192.7 372.1 198.8 371.2 203.2 372.9ZM123 442C127.7 444.2 132.3 446 133.3 446 134.3 446 140.4 444.6 146.9 442.9 157 440.3 159.4 440 162.7 440.9 167.2 442.1 173.2 447.9 175.5 453.2 178.3 460 177 475.9 173.2 481.8 169.6 487.4 159.7 488.5 145 484.9 140.3 483.8 131.5 482.5 125.5 482.1 113.3 481.2 109.8 479.9 105.5 474.8 102.2 470.9 98.6 463.1 97.6 457.7 96.6 452.1 99.2 443.8 103.1 440.6 107.6 436.8 112.6 437.1 123 442ZM149 405.8C143.8 411.1 144.1 421.6 149.7 426 153.3 428.8 157.4 428.5 161.1 425.2 167 419.9 166 407.1 159.4 404.1 155.3 402.3 152 402.8 149 405.8ZM125.2 406.6C122.1 408.7 119 415.2 119 419.4 119 424.4 122.7 428.4 127.3 428.3 134 428.1 139 422.3 139 414.5 139 407.3 130.9 402.6 125.2 406.6ZM69.8 428.5C66.1 430.6 62.8 436.3 63.1 440.2 63.3 442 62.6 447.1 61.6 451.4 56.1 475.1 68 503.5 94.5 529.6 102.6 537.6 109.9 543 127.6 554.2 133.5 558 135.1 562.1 136.2 576.9 137.2 591 140.3 601.8 146.1 611.8 151.2 620.4 166 634.8 175.4 640.3 215.8 663.8 276 660.6 350.5 630.9 366.9 624.4 380.1 618.4 410 603.7 469 574.7 514 558.7 554.4 552.3 571.3 549.6 604 549.9 617.7 552.8 638.5 557.3 654.2 564.3 682.4 581.7 707.5 597.2 717.6 601.9 731.8 604.6 766.4 611.2 797.1 592.6 817.2 552.7 819.4 548.3 822 544 823.1 543.1 824.1 542.2 826.3 538 827.9 533.6 830.5 526.3 831 525.7 834.5 524.5 847.1 520.1 851.2 504.2 842.2 494.7 838.2 490.5 834.2 488.7 828.5 488.7 822.8 488.7 818.7 490.5 814.9 494.7 811 498.8 810 501.3 810 506.5 810 512.2 811.9 516.7 815.8 520.3L818.8 523.2 815.8 530.7C814.2 534.9 813.2 539 813.5 539.8 814.2 541.7 806.3 556.4 799.2 566.3 788.7 580.9 776.8 590.4 763 595.2 757.6 597.1 754.5 597.5 745 597.4 726.7 597.3 715.1 592.7 684.6 573.5 646.1 549.3 615.8 540.5 578.1 542.4 527.1 545 477 561.3 394.4 602.2 341.4 628.5 297.1 643.1 259.1 647 203.2 652.6 160.9 633.1 147.9 595.6 145.5 588.9 145 585.8 145 577.9 145 567 146.8 559.4 150.2 556.3 151.5 555.2 156.3 552 161 549.2 178.5 538.8 192.6 525.5 203.9 509 218.3 488 223.5 469.1 219.5 452.5 218.5 448.6 217.8 443.5 217.9 441 218 432.4 210.4 425.3 204 428 198 430.5 197.3 436.6 202.3 442.1 204.2 444.1 206.6 446.1 207.8 446.4 210.3 447.2 211.8 451.2 212.6 459.3 213.3 467 211.3 476.9 206.9 487.6 204.1 494.4 202.5 496.7 195 504.1 187.9 511.2 184.8 513.5 176.9 517.4 164.8 523.3 158.1 525 144.5 525.7 120.4 526.9 99.7 519 84.2 502.7 77 495.1 73 487.4 69.9 475 66.5 461.5 68.3 448.3 74 446 75.6 445.4 78 443.1 79.4 441.1 83.3 435.5 82.6 431 77.3 428.2 74.5 426.7 73.1 426.7 69.8 428.5ZM117.6 527.2C124.3 529.1 127.8 529.5 140.5 529.5 157.8 529.5 165.5 527.8 179 521 183.4 518.8 187 517.2 187 517.4 187 518.7 172.1 529.3 166.7 531.9 156.8 536.8 149 538.3 137.5 537.7 122.5 537 110.1 531.8 98.5 521.4L93.5 517 101.6 520.9C106 523.1 113.2 525.9 117.6 527.2ZM321.7 444.2C319 445.7 315.3 453 312.7 462L310.2 470.5 305.1 470.2C297.1 469.6 290.5 472.4 283.9 479 279.1 483.7 277.8 485.8 276 491.6 272.2 504.1 261.7 511.2 251.4 508.4 249.4 507.9 249.7 507.4 254.1 503.3 260.8 497 267.8 486.4 268.6 481.3 269.4 476.3 268.4 475.6 259.3 474.6 255.8 474.2 250.9 473 248.4 471.8 239.7 468 230.9 471.8 229.4 479.8 228.8 482.7 229.1 483.7 230.9 485.1 232.8 486.7 234.4 486.8 243 486.3 248.4 486 253.5 486 254.4 486.3 257.4 487.5 253.7 492.4 244.5 499.5 236.1 506.1 234.5 508.4 235.2 513.1 235.9 518.1 251.1 520.7 261.7 517.5 264.4 516.7 268.5 514.7 270.8 513L274.9 510.1 277 513C279.8 517 286.7 519.4 292.7 518.6 298 517.9 305.4 513.9 306.4 511.3 307 509.9 307.5 510.3 309.3 513.5 311.3 517 312 517.5 315.7 517.8 320.5 518.2 326.8 515.4 331.6 510.8L334.7 507.9 335.3 512.5C336 519.1 337.8 520.7 342.9 519.1 348.3 517.5 349.4 515.2 348.7 506.6 348.2 500.5 349.7 488.8 351.1 487.6 351.3 487.4 353.4 487 355.7 486.6L359.8 486 358 490.8C354.2 501 354.6 511.6 359.1 516.1 362.8 519.8 372.9 518 378 512.5L380.2 510.1 382.8 513.2C389.2 520.8 401.7 520.9 409.6 513.5 411.6 511.6 413.4 510 413.5 510 413.7 510 414.1 511.1 414.4 512.4 416.6 521.2 429 519.4 438.5 508.8 441.8 505.2 443 504.3 443 505.6 443 508 447.4 517.5 448.9 518.5 451.5 520.1 456.5 517.5 463.4 511L470.5 504.2 473.3 506.6C476.7 509.5 482 510.5 486.2 509.1 488.3 508.4 489.6 508.3 489.8 508.9 490.5 511.1 494.3 515.1 496.8 516.4 506.2 521.2 523.7 517.8 531.2 509.8L534 506.8 534 511.4C534 517.6 536.5 520.3 541.1 519 546.8 517.3 547.8 515.6 548.6 506L549.2 497.2 553.1 505.1C558.1 514.9 561.6 518 567.6 518 573.2 518 577.6 516.1 581.6 512.1L584.8 509 585.5 513.5C586.4 519.6 589.1 521.1 594.7 518.4L598.5 516.5 599.1 504C599.9 489.3 600.5 487 603.4 487 604.5 487 606.5 486.7 607.7 486.4L610 485.8 607.9 491.6C605 500 605.5 511.8 608.9 515.4 613.2 520 622.3 518.7 627.9 512.6L630.4 510 633.2 513.5C639.3 520.8 651.8 520.8 660 513.4 663.8 509.9 663.8 509.9 664.5 512.2 666.8 519.6 674.5 520 684.4 513.2 686.5 511.8 689.2 509.1 690.4 507.3L692.7 504.1 694.4 509.4C695.3 512.4 696.9 515.9 697.9 517.1 699.6 519.3 700 519.3 704 518.1 706.9 517.2 710.1 514.9 714.5 510.5 720.6 504.3 720.8 504.1 722.5 506 725 508.7 730.4 510.3 734.8 509.5 738.2 509 738.8 509.2 739.8 511.4 742.9 518.2 757 519.7 764.4 513.9L767 511.9 766.3 515.2C766 517 765.3 518.8 764.7 519.1 764.2 519.5 760.1 520.5 755.6 521.4 751.2 522.3 745.5 524 743 525.3 738.8 527.4 738.5 527.8 738.2 532.1 737.7 540.2 743.7 545 754.5 545 764.4 545 769.3 541.1 773.4 530 774.8 526.4 776 525 779.5 523.1 789.1 518 799 505.7 799 498.8 799 496.7 798.6 495 798 495 797.5 495 793.2 499.1 788.4 504 783.6 509 779.6 512.9 779.4 512.7 779.2 512.6 780.9 506 783.1 498.1 785.2 490.1 787 481.9 787 479.8 787 472.8 782.4 467.1 778 468.5 776 469.1 773.8 474.9 769.5 491 768.1 496.2 766.2 501.6 765.2 503 761.6 507.8 755.1 508.1 754.2 503.5 754 502.5 755 496.4 756.6 489.9 759 479.6 759.2 477.5 758.2 474.1 756.8 469.6 754.3 468.5 748.7 470.1 744.7 471.2 744.9 470.6 742.9 486 741.7 495.6 739.3 499.3 733.7 500.4 731 501 730.1 500.6 728.2 498.4 726 495.9 726 495.7 727.7 493.1 733.8 484.1 735.4 477.4 732.5 473.4 729.4 468.9 720.7 469.8 717.4 474.8 716 476.9 715.6 479.6 715.5 486.5 715.4 495.7 714.6 498.5 710.7 502.7 708.1 505.7 706.4 505.6 704.4 502.5 702.7 499.9 702.8 494 704.6 477.8 705.2 472.6 705.1 472.1 702.7 470.5 700.6 469.2 699.5 469.1 696.1 470 690.1 471.6 688.6 475.9 690 487.5L690.9 494.5 685.7 499.8C676.2 509.6 675 509.2 675 495.7 675 488.3 675.4 486.2 677.5 481.9 680.3 476.4 680 474.7 675.4 471.1 672.3 468.7 668.2 468.3 667.4 470.4 667 471.5 666.2 471.6 663.9 470.8 659.4 469.3 651.1 470.7 645.2 474.1 638.8 477.8 633.5 484.6 631.3 492.3 630 496.8 628.6 499 624.9 502.5 622.2 505 619.6 507 619 507 617.3 507 617.8 503.1 621 492.1L623.9 481.8 621.9 477.9C619.7 473.6 618.2 473.2 612.7 475.5 606.9 477.9 603.1 477.5 601.9 474.2 600.1 469.5 597 467 592.9 467 590.8 467 588.4 467.7 587.6 468.6 585.4 470.7 585.6 475.2 588 478.3L590.1 480.9 588 486.9C586.9 490.2 586 493.5 586 494.3 586 496.3 575.8 505.8 572.8 506.5 569.4 507.4 566.4 505.7 564 501.7 561.2 497.2 561.5 496.3 565.8 495.6 571.6 494.7 577.7 489.9 579.1 485.1 583.3 471 563.6 464.2 553.5 476.2L551 479.2 551 476.1C551 474.1 552.6 470.5 555.6 466.1 561.3 457.5 562.1 452.9 558.8 448.1 555.2 442.8 553.5 442.2 550.7 444.8 544.9 450.2 537.3 473.7 534.8 493.7 533.8 501.4 533.4 502.6 532.4 501.2 531.3 499.8 530.8 499.7 529.3 500.8 518.8 508.1 506 508.9 504.4 502.3 503.4 498.5 504.3 497.7 513.1 494.1 523.8 489.7 527 486.5 527 480.1 527 474.2 524.1 471.1 518.1 470.3 506.2 468.7 493.5 479.1 489.9 493.4 488.9 497.5 488.2 498.4 485.3 499.7 481.3 501.3 479 500.8 477.2 498 476.1 496.2 476.4 495.1 479.4 489.7 481.2 486.3 483.1 482.2 483.4 480.6 485.1 473.4 478.7 468.4 471.5 471.4 466.4 473.6 464.6 478.3 465.3 487.6 465.8 494.4 465.7 495 462.7 499.6 459.4 504.5 456.7 506.1 454.7 504.1 452.8 502.2 452.2 491 453.6 484 455.4 475.2 455.3 473.3 452.9 470.9 451.3 469.3 450.2 469 447.7 469.5 439.9 471.2 438 475.5 439.8 488.3L440.7 495.1 434.2 501.1C430.7 504.4 427.3 506.9 426.7 506.7 425.9 506.5 425.4 502.8 425.2 496.2 425 487.6 425.2 485.7 427 482.8 428.1 481 429 478.4 429 477.2 429 472.4 419.6 466.6 417.5 470.1 417 470.7 414.9 470.9 411.5 470.5 397.6 468.7 383.2 479.8 380.5 494.3 380 497 378.5 499.2 374.8 502.5 372 505 369.4 507 368.9 507 367.3 507 367.9 501.6 370.5 492.9 373.4 482.9 373.5 480.7 371.3 476.9 369.3 473.6 367.5 473.3 362.3 475.5 360.4 476.3 357.3 477 355.5 477 352.8 477 352.1 476.5 351.6 474.4 350.1 468.4 343.2 465.2 337.9 468 335.4 469.4 335.4 474.9 338 478.2 339.9 480.7 339.9 480.8 338 486.3 336.9 489.4 336 492.6 336 493.3 336 494.8 326.7 504 323.3 505.8 319.7 507.8 318.6 505.2 319.4 496 320.6 481.1 322.8 472 326.7 465.6 331.3 458.1 332 452.4 329.1 447.7 326.8 443.9 324.2 442.7 321.7 444.2ZM309 477.2C308.7 483.9 305.8 500.4 304.5 502.4 300.9 507.9 293.3 509.7 290.6 505.8 286.8 500.5 290.6 487.8 297.5 482.5 301.7 479.4 309 476 309 477.2ZM413.1 487.7C412.1 499 410.4 503.2 405.7 506 397.3 511.1 392.4 506 395 494.9 396.6 488.4 401.7 482.5 408.5 479.4 411.2 478.1 413.5 477.2 413.7 477.3 413.8 477.5 413.6 482.1 413.1 487.7ZM663.9 481.2C663.5 483.6 663.1 487.9 663 490.8 663 499.9 657.3 508 651 508 646.6 508 645 505.7 645 499.4 645 492.9 647.5 487.5 652.2 483.5 655.1 481 662.4 477.1 664.1 477 664.5 477 664.4 478.9 663.9 481.2ZM524.5 450.1C518.6 456.1 515.3 458 510.8 458 503.4 458 503 462.4 510.3 463.5 515.2 464.3 520 463.5 524.1 461.4 528.4 459.3 539 449.9 539 448.4 539 446.8 535.1 445 531.6 445 530.3 445 527.5 447 524.5 450.1ZM669.8 449.1C666 453.8 659.5 458 655.9 458 648.6 458.1 646.6 461.2 652.8 462.9 658.4 464.5 662 464.2 667.5 461.6 672.2 459.5 684 449.7 684 448.1 684 446.9 679.1 445 676 445 673.8 445 672.3 446 669.8 449.1ZM877.2 472.6C870.7 475.8 864.7 482.6 862 489.6 859.3 496.8 859.3 507.3 861.9 511.6 866.9 519.8 883.1 520.8 892.9 513.6 899.6 508.6 904.6 498.6 901.9 495.4 900.9 494.2 899.7 494.9 894.5 499.9 888 506.2 884.8 507.7 880.3 506.5 875.7 505.4 875 504.2 875 497.6 875 493.2 875.6 490.2 877.3 487 880.3 481 882 480.2 886.4 482.5 889.8 484.4 890 484.4 891.9 482.5 894.9 479.9 894.8 473.6 891.8 471.6 888.5 469.3 883.1 469.7 877.2 472.6ZM905.3 472C903.6 473 901.6 474.8 901.1 475.9 899.4 479 899.7 484.8 901.7 485.9 902.7 486.4 908.2 486.6 914.7 486.3 924.7 485.8 926 485.9 926 487.3 926 489.6 920.3 495.6 913.1 501 902.4 509 902.2 514.7 912.4 518 917.9 519.8 929.4 518.8 935.5 516.1 944.3 512.2 950 505.1 950 498 950 493.7 948.2 494.2 942.3 500.3 934.9 508 929.3 510.3 922.2 508.4 920.1 507.8 920.3 507.5 925 502.8 932.4 495.6 938.2 486.5 938.8 481.4 939.3 476.3 938.3 475.6 929.6 474.6 926.3 474.2 921.7 473.1 919.2 472 913.6 469.5 909.4 469.5 905.3 472Z",
        "width": 1000
      },
      "search": [
        "logo"
      ]
    },
    {
      "uid": "6d88b17972e0a5347d621a749f89bdfa",
      "css": "arr-right",
      "code": 59402,
      "src": "custom_icons",
      "selected": true,
      "svg": {
        "path": "M561.1 146C548.6 150.5 539.7 161.3 536.9 175.3 535.3 183 537 192.3 541.3 200.4 544.3 206 551 211.7 682.9 320.4L821.4 434.5 449.5 435 77.5 435.5 71.6 438.4C55.2 446.4 46.6 465.5 51.5 482.6 55.8 497.7 67.3 507.7 82.7 510 92 511.3 907 511.3 916.3 510 924.7 508.8 930.7 506 937 500.3 950.1 488.6 952.9 467.1 943.3 452.2 941.4 449.2 885.9 400.8 770.1 301.2 676.4 220.5 597.8 153 595.4 151.2 586.2 144.1 572.2 142 561.1 146ZM753 587.5C750 588.4 745.5 590.4 743.1 591.9 740.8 593.5 694.7 639.9 640.8 695.1 565 772.9 542.4 796.6 540.4 800.5 532.9 815.9 535.8 832.9 548 845.1 556.4 853.6 568.8 857.5 580.1 855.1 592.8 852.4 588.7 856.2 694.6 747.8 807.2 632.4 799.5 641.5 799.5 624 799.5 615.8 799.1 613.7 796.8 608.8 788.9 591.8 770.2 582.7 753 587.5Z",
        "width": 1000
      },
      "search": [
        "arr-right"
      ]
    },
    {
      "uid": "d60673836d00ee946bc3b05a8a6dbe1e",
      "css": "arr-left",
      "code": 59403,
      "src": "custom_icons",
      "selected": true,
      "svg": {
        "path": "M414.2 145.9C411.3 147 406.9 149.4 404.6 151.2 402.2 153 323.6 220.5 229.9 301.2 114.1 400.8 58.6 449.2 56.7 452.2 47.1 467.1 49.9 488.6 63 500.3 69.3 506 75.3 508.8 83.7 510 93 511.3 908 511.3 917.3 510 932.7 507.7 944.2 497.7 948.5 482.6 953.4 465.5 944.8 446.4 928.4 438.4L922.5 435.5 550.5 435 178.6 434.5 317.1 320.4C449 211.7 455.7 206 458.7 200.4 463 192.3 464.7 183 463.1 175.3 460.7 162.9 452.8 152.4 442 147.3 434.5 143.7 421.9 143.1 414.2 145.9ZM227.9 587.4C217.6 590.1 208 598.5 203.2 608.8 200.9 613.7 200.5 615.8 200.5 624 200.5 641.5 192.8 632.4 305.4 747.8 411.3 856.2 407.2 852.4 419.9 855.1 431.2 857.5 443.6 853.6 452 845.1 464.2 832.9 467.1 815.9 459.6 800.5 457.6 796.6 435 772.9 359.2 695.1 305.3 639.9 259.2 593.5 256.9 591.9 248.7 586.7 237.3 584.9 227.9 587.4Z",
        "width": 1000
      },
      "search": [
        "arr-left"
      ]
    },
    {
      "uid": "0b21d107e015253da89880e322830019",
      "css": "arr-down",
      "code": 59404,
      "src": "custom_icons",
      "selected": true,
      "svg": {
        "path": "M462.5 51.4C451.4 54.9 443.2 61.8 438.4 71.6L435.5 77.5 435 449.5 434.5 821.4 320.4 682.9C211.7 551 206 544.3 200.4 541.3 188.6 535 176.2 534.7 164.5 540.5 144.3 550.3 137.6 577.1 150.9 595 152.9 597.6 220.5 676.5 301.2 770.1 400.8 885.8 449.2 941.4 452.2 943.3 467.1 952.9 488.6 950.1 500.3 937 506 930.7 508.8 924.7 510 916.3 511.3 907 511.3 92 510 82.7 508.3 71.3 502.5 62.1 493.2 56.2 484.2 50.5 471.6 48.5 462.5 51.4ZM810 537.1C799.2 539.2 800.2 538.3 695.1 640.8 639.9 694.7 593.5 740.8 591.9 743.1 579.9 761.6 587.9 787.1 608.8 796.8 613.7 799.1 615.8 799.5 624 799.5 641.5 799.5 632.4 807.2 747.8 694.6 856.2 588.7 852.4 592.8 855.1 580.1 859.2 560.8 845.1 540.8 824.8 537 819 535.9 816.2 535.9 810 537.1Z",
        "width": 1000
      },
      "search": [
        "arr-down"
      ]
    },
    {
      "uid": "f0061c87e2093f07f5004455896d23ab",
      "css": "eye",
      "code": 59405,
      "src": "custom_icons",
      "selected": true,
      "svg": {
        "path": "M462.5 212C316.5 224.7 188.7 297.2 96 420 76.5 445.9 53.1 483.3 51 492.1 48.4 503 51.9 514.9 60.1 522.5 67.2 529.1 72.8 531.4 82 531.4 88.6 531.5 90.5 531 96.3 528.2 104.2 524.3 106.8 521.2 116.7 504.5 149.2 449.6 192.8 400.5 242.7 362.7 346.4 284.3 475.9 256.8 599.3 287.1 696.2 310.9 782.1 368.2 848.5 453.5 856.6 463.8 878.5 495.6 879.7 498.6 880.7 501.2 858.8 533.2 841.6 554.5 771.4 641.3 678 698.4 575 717.4 547.6 722.4 534.9 723.5 500 723.5 474.8 723.5 464.3 723.1 453 721.7 358.9 710 276.1 670.9 204.8 604.3 197.8 597.8 189.1 589.3 185.5 585.3 180.6 580 177.1 577.2 172.2 574.8 156.1 566.9 137.7 573.1 129.2 589.5 125.7 596.3 125.4 609.1 128.6 616.1 131.3 621.8 141.9 633.6 159.3 649.9 238.1 723.9 332.2 769.8 434 783.9 457.3 787.1 474.8 788.2 501 788.2 554.9 788.2 602.4 780.4 654 763.1 771.5 723.6 871 640.9 939.6 525.7 948.6 510.7 950.7 504.3 949.6 495.9 948.7 489.4 947.2 486 938.3 471.2 923 445.8 903.6 418.5 884.2 395 871.3 379.5 832.4 340.7 817 328 737.9 262.5 652.3 225.6 552 213.4 536.4 211.5 478.6 210.6 462.5 212ZM486 339.7C457.8 342.5 429.3 353 407 368.8 394.8 377.4 377.4 394.9 368.8 407 339.6 448.2 331.6 501.1 347.1 549 365.2 604.8 413.3 646.8 471.5 657.6 486.4 660.4 516.7 660.2 530.8 657.2 558.2 651.3 581.3 640.3 602.2 623.3 629 601.5 649.5 568 656.9 533.7 664.9 496.9 659.9 459.9 642.4 426 621.1 384.8 583.9 355.4 538.6 344 521.9 339.8 501.5 338.1 486 339.7ZM524 406.6C556.5 414.8 582.4 440.1 592.6 473.5 595.1 481.7 595.4 483.9 595.4 499 595.5 513.2 595.2 516.7 593.2 523.8 583.8 558.1 556.8 584.6 522.4 593.2 509.1 596.5 489.1 596.3 475.8 592.7 447.9 585.3 424.5 565.7 412.5 539.6 406.7 527.1 404.8 519 404.3 503.4 403.7 487.4 405.1 477.8 410.1 465 418.7 442.7 437.6 422.5 459.5 412.4 479.7 403.1 502 401.1 524 406.6Z",
        "width": 1000
      },
      "search": [
        "eye"
      ]
    },
    {
      "uid": "7b91d91b82d70fee65e7a5380ec8f9d0",
      "css": "arr-up",
      "code": 59406,
      "src": "custom_icons",
      "selected": true,
      "svg": {
        "path": "M460.3 52.8C457.5 53.8 453.5 55.7 451.5 57.1 448.2 59.3 159.5 393.5 150.9 405 145.7 412 143.6 419.4 144.2 428.8 145.2 446.2 157.4 459.6 175.3 463.1 183 464.7 192.3 463 200.4 458.7 206 455.7 211.7 449 320.4 317.1L434.5 178.6 435 550.5 435.5 922.5 438.4 928.4C446.4 944.8 465.5 953.4 482.6 948.5 497.7 944.2 507.7 932.7 510 917.3 511.3 908 511.3 93 510 83.7 508.1 70.7 500.8 60.5 489.3 54.8 483.8 52.1 481.4 51.6 474.1 51.3 467.6 51 464.2 51.4 460.3 52.8ZM613.9 201.3C599.4 205.4 587.9 218.9 586.4 233.6 585.6 241 587.9 250.7 591.9 256.9 593.5 259.2 639.9 305.3 695.1 359.2 772.9 435 796.6 457.6 800.5 459.6 815.9 467.1 832.9 464.2 845.1 452 853.6 443.6 857.5 431.2 855.1 419.9 852.4 407.2 856.2 411.3 747.8 305.4 634.5 194.8 641.9 201.2 626.2 200.4 621.7 200.2 616.6 200.5 613.9 201.3Z",
        "width": 1000
      },
      "search": [
        "arr-up"
      ]
    },
    {
      "uid": "9aeaf29161eb005a308bbd624d6e066a",
      "css": "left-dir",
      "code": 59417,
      "src": "entypo"
    },
    {
      "uid": "ff9a85aa20950dcc0615a2707a2b3f8e",
      "css": "right-dir",
      "code": 59418,
      "src": "entypo"
    },
    {
      "uid": "d2c6b59d9a239140cb76be0627480855",
      "css": "dot",
      "code": 59425,
      "src": "entypo"
    },
    {
      "uid": "13b11ab72c6ae9c97ee12428e17f3a4e",
      "css": "dot-2",
      "code": 59426,
      "src": "entypo"
    },
    {
      "uid": "d10920db2e79c997c5e783279291970c",
      "css": "dot-3",
      "code": 59416,
      "src": "entypo"
    },
    {
      "uid": "ce7452abce8b55ded1c393997a51e6b3",
      "css": "ok",
      "code": 59427,
      "src": "elusive"
    },
    {
      "uid": "55e2ff85b1c459c383f46da6e96014b0",
      "css": "plus",
      "code": 59401,
      "src": "elusive"
    },
    {
      "uid": "0fb1948386f4581c72424a69587e6471",
      "css": "minus",
      "code": 59420,
      "src": "elusive"
    },
    {
      "uid": "e45a3da2ebde8bc8e30a873f3bd51f30",
      "css": "eye-1",
      "code": 59414,
      "src": "elusive"
    },
    {
      "uid": "711fdb6caa365d5b69d4a72da2009cf6",
      "css": "exclamation",
      "code": 59415,
      "src": "elusive"
    },
    {
      "uid": "64fb13a798e934810c303e6b07791816",
      "css": "doc",
      "code": 59400,
      "src": "elusive"
    },
    {
      "uid": "64abb7c56aefca89046bb69f7251d2e2",
      "css": "calendar",
      "code": 59412,
      "src": "elusive"
    },
    {
      "uid": "616b755d0f4c7d2dc7a1dcc2e5427039",
      "css": "down-open",
      "code": 59408,
      "src": "elusive"
    },
    {
      "uid": "c0a07aca383ff2a164a4d691fa46e35c",
      "css": "left-open",
      "code": 59409,
      "src": "elusive"
    },
    {
      "uid": "dc4a03854ef986d64565143bea4241aa",
      "css": "right-open",
      "code": 59410,
      "src": "elusive"
    },
    {
      "uid": "b91c0e6aaab5e3146732b69dd418e120",
      "css": "up-open",
      "code": 59411,
      "src": "elusive"
    },
    {
      "uid": "fc006ff27e50163bdec3a7588226171b",
      "css": "play-circled",
      "code": 59419,
      "src": "elusive"
    },
    {
      "uid": "3a3b33acd5fe66d84ff303baf9d8efa8",
      "css": "align-left",
      "code": 59407,
      "src": "elusive"
    },
    {
      "uid": "3c4b20e86f774f150402354b9cfeb95b",
      "css": "align-center",
      "code": 59421,
      "src": "elusive"
    },
    {
      "uid": "4d622484db3311a1a7322aae6b253984",
      "css": "align-right",
      "code": 59422,
      "src": "elusive"
    },
    {
      "uid": "55f7ab3f2bedec72e8400fa2798a7a1a",
      "css": "align-justify",
      "code": 59413,
      "src": "elusive"
    },
    {
      "uid": "cd9ad52ef0740bb86ff11af9646d4859",
      "css": "list",
      "code": 59423,
      "src": "elusive"
    },
    {
      "uid": "1bedd7992ce00dc412fb02b39c1e9ebf",
      "css": "tint",
      "code": 59424,
      "src": "elusive"
    },
    {
      "uid": "5048fb5dd929882d2bac1ad3777b0b7d",
      "css": "filter",
      "code": 59399,
      "src": "elusive"
    }
  ]
}